{
	"_id": "_design/session",
	"language": "javascript",
	"views": {

        "by_id": {"map":"function(d) {\n\n\tif(d.doctype === 'session') {\n\t\temit(d._id, d);\n\t}\n\n}\n"},
        "by_activity": {"map":"function(d) {\n\n\tif(d.doctype === 'session') {\n\t\temit([d.activity, d.visible], d);\n\t}\n\n}\n"},
        "by_group": {"map":"function(d) {\n\n\tif(d.doctype === 'session') {\n\t\temit([d.group, d.visible], d);\n\t}\n\n}\n"},
        "by_group_activity": {"map":"function(d) {\n\n\tif(d.doctype === 'session') {\n\t\temit([d.group, d.activity, d.visible], d);\n\t}\n\n}\n"}
   }
}
